https://raw.githubusercontent.com/adityagupta1089/Codeforces-Solutions/master/P265A.py
https://raw.githubusercontent.com/AkashChandrakar/codeforces-solutions/master/c%2B%2B/265-A-13135305.cpp
https://raw.githubusercontent.com/o-panda-o/MySolutions/master/Implementation/Code_265A_ColorfulStones_SimplifiedEdition.java
