https://raw.githubusercontent.com/nikzsaz/Codeforces-solution/master/131B-OppositeAttract.cpp
https://raw.githubusercontent.com/changyuheng/codeforces-solutions/master/131b.py
https://raw.githubusercontent.com/mkirsche/Codeforces/master/131-B/131-B-2803803.java
https://raw.githubusercontent.com/Erfaniaa/Codeforces/master/131B-OppositesAttract.pas
