https://raw.githubusercontent.com/nayuki/Project-Euler-solutions/master/java/p094.java
https://raw.githubusercontent.com/nayuki/Project-Euler-solutions/master/python/p094.py
https://www.mathblog.dk/project-euler-94-almost-equilateral-triangles/
