https://raw.githubusercontent.com/TheAaronCovington/Java-Coderbyte-Solutions/master/18LetterCountI.java
https://raw.githubusercontent.com/ZLester/Coderbyte-Solutions/master/Easy/18%20-%20Letter%20Count%20I.js
https://raw.githubusercontent.com/Nigelmnz/CoderbyteSolutions/master/18-LetterCountI/18.hs
https://raw.githubusercontent.com/designerGenes/CoderbyteInSwift/master/LetterCountI/LetterCountI.playground/Contents.swift
https://raw.githubusercontent.com/bolducp/coderbyte/master/easy/18_letter_count.py
