28
10335 65528
25466 39390
26122 97430
39631 44016
20045 94775
37090 30193
69468 47710
12196 21513
54679 10873
42587 32101
51209 11814
56091 47239
21080 59458
12616 80708
61535 23512
42922 61870
79040 58388
91261 95163
55818 30892
39180 65864
25668 66270
86058 85136
13981 88254
96650 58661
89128 39238
80762 40337
41052 36854
77577 52133
