https://codeforces.com/contest/1139/submission/58241340
https://codeforces.com/contest/1139/submission/51625185
https://codeforces.com/contest/1139/submission/57610760
https://codeforces.com/contest/1139/submission/51665329
https://codeforces.com/contest/1139/submission/51657997
https://codeforces.com/contest/1139/submission/54995992
https://codeforces.com/contest/1139/submission/51680564
https://codeforces.com/contest/1139/submission/51649559
https://codeforces.com/contest/1139/submission/53197236
https://codeforces.com/contest/1139/submission/52644884
