https://raw.githubusercontent.com/rootulp/exercism/master/java/scrabble-score/src/main/java/Scrabble.java
https://raw.githubusercontent.com/rootulp/exercism/master/javascript/scrabble-score/scrabble-score.js
https://raw.githubusercontent.com/rootulp/exercism/master/python/scrabble-score/scrabble.py
https://raw.githubusercontent.com/rootulp/exercism/master/ruby/exercises/scrabble-score/scrabble.rb
https://exercism.io/tracks/scala/exercises/scrabble-score/solutions/d53f5b56d8b146699d9280da9f758f10
https://exercism.io/tracks/erlang/exercises/scrabble-score/solutions/390129dccb9041daa1864ca0eb902b03
https://exercism.io/tracks/cpp/exercises/scrabble-score/solutions/2b0436e2a3be4cf8a17d10b07b8da2f5
https://raw.githubusercontent.com/exercism/lua/master/exercises/scrabble-score/example.lua
https://raw.githubusercontent.com/mmozuras/exercism/master/go/scrabble-score/scrabble_score_test.go
https://exercism.io/tracks/rust/exercises/scrabble-score/solutions/7e76cae21bdf4fabbc454587ebb35745
https://exercism.io/tracks/r/exercises/scrabble-score/solutions/7aac35e2b6b34571a6280255233b3207
https://exercism.io/tracks/cfml/exercises/scrabble-score/solutions/4bfb315078ee4b0b9d61e44ac2e4b4c3
https://exercism.io/tracks/crystal/exercises/scrabble-score/solutions/f9e935a54b6d42339791c0cc36493cef
https://exercism.io/tracks/fsharp/exercises/scrabble-score/solutions/d39d013ad7d94307b961e7e34140bec0
https://exercism.io/tracks/elm/exercises/scrabble-score/solutions/3f23a5b3ddc8496db7a12f87e0acd5d8
https://exercism.io/tracks/go/exercises/scrabble-score/solutions/8dcaa763c8a348bc84ebe42a5eaa4744
https://exercism.io/tracks/haskell/exercises/scrabble-score/solutions/7f5b5c1433be4050ae3d75de22e3b054
https://exercism.io/tracks/julia/exercises/scrabble-score/solutions/7b04e39c66884d77813247c51a27af6d
https://exercism.io/tracks/delphi/exercises/scrabble-score/solutions/9fac436558f54ea7bd51065eaba0e02e
https://exercism.io/tracks/clojure/exercises/scrabble-score/solutions/d0ed07328ff24bfa8767eba80175627c
https://exercism.io/tracks/swift/exercises/scrabble-score/solutions/832754677b744196b7ef4c9c8b717937
https://exercism.io/tracks/elixir/exercises/scrabble-score/solutions/a5c687ca0cb84c0ea5f1b90da1337612
https://exercism.io/tracks/dart/exercises/scrabble-score/solutions/4c4ee6c7cd0c4c8db48a4cf283c29f16
https://exercism.io/tracks/csharp/exercises/scrabble-score/solutions/04317f226c2f4728b7b43e7de7995bc6
https://exercism.io/tracks/groovy/exercises/scrabble-score/solutions/dde1bf01e99d4d1c90e486edfb3e16f9
https://exercism.io/tracks/kotlin/exercises/scrabble-score/solutions/248a030b891b440bbf04d193295348ac
https://exercism.io/tracks/objective-c/exercises/scrabble-score/solutions/d17f1e5ba9c54456ade7d4eff7a73dc5
https://exercism.io/tracks/php/exercises/scrabble-score/solutions/fb78ec19c5274b7fb26787e0b6586151
https://exercism.io/tracks/purescript/exercises/scrabble-score/solutions/b71f0980d81b4bd396e434231418f307
https://exercism.io/tracks/nim/exercises/scrabble-score/solutions/b8f70ebaf3a24dba8d7965e0215ca6fd
