https://www.youtube.com/watch?v=3MfQZmh4exw
https://shobi.in/hax-tor-hu-warmup-levels-capture-the-flag/
https://hyunk12.wordpress.com/2010/03/25/hax-tor-hu/
https://nandunb.wordpress.com/2016/10/26/hax-tor-hu-levels-5-and-6/
