https://raw.githubusercontent.com/charles-wangkai/hacker.org/master/challenge/PiHatesNines.py
http://hackerorgsolution.blogspot.com.co/2014/09/pi-hates-nines.html
https://raw.githubusercontent.com/luceatnobis/challenges/master/hacker.org/pi_hates_nines/pi.pl
