https://gist.githubusercontent.com/parksjin01/c051ed3867e168a9cdd93006e4e5f001/raw/581061bd56c8380789291b19c6cecb6981178742/pwnable.kr%2520lotto%2520writeup.md
https://github.com/Macmod/pwnable-writeups/blob/master/toddlers/lotto.md
https://github.com/victor-li/pwnable.kr-write-ups/blob/master/lotto.md
https://jeonyoungsin.tistory.com/921?category=878012
