https://github.com/CyrilP/ThisisLegal
https://www.youtube.com/watch?v=5r2gzibIP0c
https://reversecodes.wordpress.com/2015/12/16/this-is-legal-realistic-challenge-1-medio/
https://www.youtube.com/watch?v=dqPfVxAJwC8
http://juancho056.blogspot.com/search/label/Challenge%202
