https://shreyansh.tech/post/2019-12-02_tuctf-pwn-2019/#printfun-500-pts
https://raw.githubusercontent.com/AshishKumar4/CTF_Writeups/master/TuCTF_2019/PWN/printfun/exploit.py
https://0xf4b1.github.io/ctftime/tuctf.com/pwn/printfun/
