https://raw.githubusercontent.com/Mitame/hackerrank-solutions/master/algorithms/implementation/absolute-permutation.c
https://raw.githubusercontent.com/jvujcic/HackerRank/master/Algorithms/Absolute%20Permutation.cpp
https://raw.githubusercontent.com/charles-wangkai/hackerrank/master/absolute-permutation/Solution.java
https://raw.githubusercontent.com/ynyeh0221/HackerRank/master/Absolute%20Permutation.py
