https://raw.githubusercontent.com/c650/hackerrank-solutions/master/Algorithms/Implementation/the-hurdle-race.cpp
https://raw.githubusercontent.com/RodneyShag/HackerRank_solutions/master/General%20Programming/Basic%20Programming/The%20Hurdle%20Race/Solution.java
https://raw.githubusercontent.com/danhenriquesc/hackerrank/master/algorithms/implementation/the_hurdle_race.php
