https://rundata.wordpress.com/2013/03/21/overthewire-bandit-wargame-solutions-1-24/
https://infamoussyn.com/2013/11/08/overthewire-bandit-level-0-25-writeup-completed/
https://jdow.io/blog/2017/12/16/overthewire-bandit-wargame-walkthrough/#level-12---13
http://sp4hack.blogspot.com.co/2014/01/overthewire-bandit-level-13-to-level-14.html
https://www.yalpski.net/bandit-wargame/bandit-walkthrough-level-13
https://alexandervoidstar.wordpress.com/2016/02/20/overthewire-bandit-level-13/
http://codebluedev.blogspot.com.co/2015/07/overthewire-bandit-level-13.html
https://hackmethod.com/overthewire-bandit-13/
https://raw.githubusercontent.com/Cathon/mySolutions/master/overthewire/Bandit/Level_13.md
https://medium.com/@Kan1shka9/overthewire-wargames-bandit-walkthrough-df2b86826c67
https://github.com/milescrabill/overthewire-solutions/blob/master/Bandit.md
https://jhalon.github.io/over-the-wire-bandit2/
https://www.youtube.com/watch?v=34_DDIAkxdY
https://www.youtube.com/watch?v=aB1mYfZquSY
https://raw.githubusercontent.com/Lorenyx/OverTheWire-Solutions/master/bandit/level_13.md
