https://raw.githubusercontent.com/Transfusion/hackerrank-solutions/master/Restaurant/restaurant.c
https://raw.githubusercontent.com/ozan/solutions/master/hackerrank/restaurant.cpp
https://raw.githubusercontent.com/aks47u/HackerRank/master/Mathematics/Restaurant.java
https://raw.githubusercontent.com/s1ssagar/restaurant/master/restaurant.py
https://raw.githubusercontent.com/rootulp/hackerrank/master/ruby/restaurant.rb
https://raw.githubusercontent.com/advancedxy/hackerrank/master/algorithms/number-theory/Restaurant.scala
