https://raw.githubusercontent.com/igor-kutepov/codeabbey/master/src/main/java/com/kutepov/samples/codeabbey/ClockHands.java
https://raw.githubusercontent.com/prokawsar/UVa/master/579%20-%20Clock%20Hands.cpp
https://gist.githubusercontent.com/clarketm/14b228d3ff5224625b9fea2c85764905/raw/cd4a0cbdb92a6a823632b66619e75eef91db0ee7/clockAngleProblem.js
https://raw.githubusercontent.com/willemlarsen/ruby-clock-angle/master/lib/clock_angle.rb
https://raw.githubusercontent.com/yumaikas/PythonHomework/master/src/Clock.py
https://raw.githubusercontent.com/JesseClarkND/codeabbey_in_C-NET/master/Clock%20Hands
