https://raw.githubusercontent.com/royalpranjal/Hackerrank/master/BonAppétit.cpp
https://raw.githubusercontent.com/RyanFehr/HackerRank/master/Algorithms/Implementation/Bon%20Appetit/Solution.cs
https://raw.githubusercontent.com/rshaghoulian/HackerRank_solutions/master/General%20Programming/Basic%20Programming/Bon%20Appetit/Solution.java
https://raw.githubusercontent.com/dalenguyen/hackerrank-javascript/master/algorithms/bon-appetit.js
https://raw.githubusercontent.com/danhenriquesc/hackerrank/master/algorithms/implementation/bon_appetit.php
https://raw.githubusercontent.com/ynyeh0221/HackerRank/master/Bon%20Appétit.py
