https://raw.githubusercontent.com/mpillar/codeeval/master/0-easy/clean-up-the-words/main.py
https://raw.githubusercontent.com/StevenDunn/CodeEval/master/StringsAndArrows/c/saa.c
https://raw.githubusercontent.com/StevenDunn/CodeEval/master/StringsAndArrows/cpp/saa.cpp
https://raw.githubusercontent.com/adambose1990/CodeEvalJavaSolutions/master/src/com/codeeval/easy/CleanuptheWords.java
