https://www.youtube.com/watch?v=oLM6L1_LYV0&amp;feature=youtu.be
http://hackerzoneh.blogspot.com/2014/05/de-ice-110.html
http://rastamouse.me/blog/2013/de-ice-s1-dot-110/
http://blog.techorganic.com/2011/07/de-ice-hacking-challenge-part-2.html?view=sidebar
http://www.sec-track.com/desarrollo-del-entorno-de-ice-nivel-ii-%E2%80%93-informacion-confidencial-y-backdoors
http://www.sec-track.com/desarrollo-del-entorno-de-ice-nivel-ii-%E2%80%93-acceso-al-sistema-y-elevacion-de-privilegios
https://blog.g0tmi1k.com/2010/02/de-icenet-v11-1110-level-1-disk-2/
http://www.sec-track.com/desarrollo-del-entorno-de-ice-nivel-ii-%E2%80%93-recoleccion-de-informacion-escaneo-de-vulnerabilidades
http://www.sec-track.com/desarollo-del-entorno-de-ice-ii-%E2%80%93-network-mapping-port-scanning
http://www.sec-track.com/configuracion-de-ice-pentest-livecds-nivel-ii-en-qemu
http://www.sec-track.com/configuracion-de-ice-pentest-livecds-nivel-ii-en-vmware
http://pur3h4t3.blogspot.com/2007/12/de-ice-pentest-disc-1100.html
http://pastebin.com/zwbz0Kwa
http://securenetworkmanagement.com/de-ice-s1-110/
