https://ub3rsec.github.io/pages/2016/pwnosv2-sqli.html
http://defsecurityjam.blogspot.com/2015/07/pwnos-version-2-walkthrough.html
http://netsec.ws/?p=430
http://devloop.users.sourceforge.net/index.php?article82/solution-du-ctf-pwnos-2-0
http://forelsec.blogspot.com/2012/08/solving-pwn0s-v2.html
https://blog.g0tmi1k.com/2012/09/pwnos-2-php-web-application/
https://blog.g0tmi1k.com/2012/09/pwnos-2-sql-injection/
https://medium.com/@rafaveira3/pwnos-2-0-walkthrough-fe5bcc9f6e05
https://www.youtube.com/watch?v=ytzZfI27ueU
