https://raw.githubusercontent.com/IncludeZ/root-me/master/Web-Server/CRLF
https://www.youtube.com/watch?v=FqXVgCfUX0Q
https://www.youtube.com/watch?v=IcsOcWLJowY
https://www.youtube.com/watch?v=s92mlP4XUlY
https://www.youtube.com/watch?v=5RrPT9Sc90E
https://www.youtube.com/watch?v=HoxR_a9ughs
https://github.com/yelynn1/Root-me/blob/master/Web_server.md#10
https://jeonyoungsin.tistory.com/291
