https://raw.githubusercontent.com/nikzsaz/Codeforces-solution/master/228AIsYourHorseShoe.cpp
https://raw.githubusercontent.com/changyuheng/codeforces-solutions/master/228a.py
https://www.youtube.com/watch?v=O0zvnXeQis4
