https://www.youtube.com/watch?v=AXE2mIUL_R4
https://www.youtube.com/watch?v=Dxgy7veZ8qc
http://www.anonhack.in/2018/07/goldeneye-1-walkthrough-vulnhub-vulnerable-machine/
http://www.hackingarticles.in/hack-the-golden-eye1-ctf-challenge/
https://medium.com/egghunter/goldeneye-1-vulnhub-walkthrough-f31d80a5267b
https://medium.com/@cuong_nguyen/ctf-11-goldeneye-1-a81db207c668
https://blog.barradell-johns.com/index.php/2018/08/04/goldeneye-one-writeup/
https://hackso.me/goldeneye-1-walkthrough/
https://portwhisperer.github.io/CTFWriteups/goldeneye.html
https://netchameleon.com/VulnHub_Writeups/goldeneye_v1.html
