https://raw.githubusercontent.com/Lintik/CodeFights-Arcade/master/Intro/Edge%20of%20the%20Ocean/adjacentElementsProduct/code.cpp
https://raw.githubusercontent.com/Lintik/CodeFights-Arcade/master/Intro/Edge%20of%20the%20Ocean/adjacentElementsProduct/code.cs
https://raw.githubusercontent.com/Lintik/CodeFights-Arcade/master/Intro/Edge%20of%20the%20Ocean/adjacentElementsProduct/code.java
https://raw.githubusercontent.com/Lintik/CodeFights-Arcade/master/Intro/Edge%20of%20the%20Ocean/adjacentElementsProduct/code.js
https://raw.githubusercontent.com/Lintik/CodeFights-Arcade/master/Intro/Edge%20of%20the%20Ocean/adjacentElementsProduct/code.py3
https://www.youtube.com/watch?v=6B7W9RX97qE
https://www.youtube.com/watch?v=Fx8fjqMV3fk
