https://raw.githubusercontent.com/nayuki/Project-Euler-solutions/master/java/p118.java
https://raw.githubusercontent.com/nayuki/Project-Euler-solutions/master/python/p118.py
https://www.mathblog.dk/project-euler-118-sets-prime-elements/
