https://www.youtube.com/watch?v=JtXeD9pNznA&feature=youtu.be&t=1m50s
https://c6h0st.wordpress.com/2015/06/15/writeup-canyouhack-it-web-based-challenge/
http://c6h4cl2.lab.uy.to/1477
http://sithlab.tistory.com/m/1477
