https://raw.githubusercontent.com/adityagupta1089/Codeforces-Solutions/master/P479A.java
https://raw.githubusercontent.com/dwiajik/codeforces/master/479A.py
https://raw.githubusercontent.com/mpfeifer1/Codeforces/master/479a.cpp
