https://exercism.io/tracks/bash/exercises/markdown/solutions/fa58b02457a34dc79b91dd8dbe77d356
https://exercism.io/tracks/csharp/exercises/markdown/solutions/7ed07f918b0b4db2aa75590da4272481
https://exercism.io/tracks/elixir/exercises/markdown/solutions/066fa1d7da7f4adc9be5611c02a9ccf7
https://exercism.io/tracks/go/exercises/markdown/solutions/e73b06462dbe4aa08a019d161b51f7f2
https://exercism.io/tracks/java/exercises/markdown/solutions/839cfceb147f44e2a46cdbc49e139ec6
https://exercism.io/tracks/php/exercises/markdown/solutions/855b150cbc354199914c59c827d51c41
