https://raw.githubusercontent.com/sile/euler.rs/master/euler_02/src/problem071.rs
https://raw.githubusercontent.com/nayuki/Project-Euler-solutions/master/java/p071.java
https://www.mathblog.dk/project-euler-71-proper-fractions-ascending-order/
https://raw.githubusercontent.com/nayuki/Project-Euler-solutions/master/python/p071.py
