http://null-byte.wonderhowto.com/news/goodnight-byte-hackthissite-realistic-3-real-hacking-simulations-0133209/
https://www.youtube.com/watch?v=r-UtIR_gqzg
https://www.youtube.com/watch?v=TCExdF7LlQ4
http://4allgeeks.blogspot.com.co/2010/10/hackthissite-realistic-mission-3.html
http://anthonyvoza.blogspot.com.co/2013/09/hack-this-site-realistic-mission-3.html
http://www.amitghosh.net/hts-realistic-mission-3-solution/
https://www.youtube.com/watch?v=kfOAFGR-E1Y
https://www.aldeid.com/wiki/Hackthissite/Realistic/Level3
