https://github.com/CyrilP/hax.tor
https://raw.githubusercontent.com/luceatnobis/challenges/master/hax.tor.hu/11/11.py
https://gist.githubusercontent.com/ppshobi/eaa437a6e5cf032b76065d8406056609/raw/5fb4fc52dc1da353bec66695a0a21db9f91d75d4/Hax.tor.hu-level%252011%2520-%2520find%2520the%2520hash%2520within%2520time
