https://www.youtube.com/watch?v=XJmBpOd__N8
https://www.youtube.com/watch?v=NGHHxRZdIfU
https://www.bilibili.com/video/av18938947/
http://www.hackingarticles.in/hack-the-box-challenge-beep-walkthrough/
http://syrion.me/blog/htb-beep/
https://mundo-hackers.weebly.com/maacutequina-beep.html
https://www.scoop.it/t/prodefence-security-news/p/4096516367/2018/04/03/cyber-security-hack-the-box-challenge-beep-walkthrough
http://htbsolution.blogspot.com/2018/04/beep-1010107-write-up.html
https://teckk2.github.io/writeup/2017/12/20/Beep.html
https://drive.google.com/file/d/1i4gI_k8-KXvkq-lTgq195fAiVul61dVR/view
