https://vimeo.com/251204903
https://www.youtube.com/watch?v=Pc4tzsn-ats
https://www.youtube.com/watch?v=mWfitZWGadA
https://www.youtube.com/watch?v=04R6EZwXNbo
https://www.youtube.com/watch?v=gcCQ4FOVKIU
https://reboare.github.io/hackthebox/ariekei.html
https://www.vimore.org/watch/Pc4tzsn-ats/hackthebox-ariekei/
https://video.hacking.reviews/2018/04/hackthebox-ariekei.html
http://blog.yas3r.me/hackthebox/Ariekei-Walkthrough-HackTheBox
http://www.hackingarticles.in/hack-the-box-ariekei-walkthrough/
https://clicksmovies.com/watch/hackthebox-ariekei/Pc4tzsn-ats.html
http://www.hackingarticles.in/hack-the-box-challenge-ariekei-walkthrough/
https://forum.hackthebox.eu/discussion/688/ariekei-writeup-by-booj#latest
https://www.linkedin.com/pulse/hack-box-challenge-ariekei-walkthrough-aarti-singh
