https://raw.githubusercontent.com/rootulp/exercism/master/javascript/grains/grains.js
https://raw.githubusercontent.com/rootulp/exercism/master/python/grains/grains.py
https://raw.githubusercontent.com/rootulp/exercism/master/ruby/exercises/grains/grains.rb
https://exercism.io/tracks/php/exercises/grains/solutions/cfa17855d9be45428d12f297ba667a92
https://exercism.io/tracks/elm/exercises/grains/solutions/9a4a38dbed234512be25ee5f2136b793
https://exercism.io/tracks/erlang/exercises/grains/solutions/bda13957026a48f7a0e009559268ff00
https://exercism.io/tracks/scala/exercises/grains/solutions/b096eb3c9ebb4b2087d1af4359d21d48
https://exercism.io/tracks/go/exercises/grains/solutions/52e30c5468664d1bbe451a3357c1ef7c
https://exercism.io/tracks/perl5/exercises/grains/solutions/1ff53ab0fa304f27b9fa2da397e387e9
https://exercism.io/tracks/cpp/exercises/grains/solutions/b5ac6993c6d54b23a027fa052cea9a00
https://exercism.io/tracks/bash/exercises/grains/solutions/a2fed700e6a34461802edb06eb275a85
https://exercism.io/tracks/c/exercises/grains/solutions/02c4a2a2b5434ccabd6be02332577c2d
https://exercism.io/tracks/csharp/exercises/grains/solutions/0f80e3e4c9f140a29ccb724375626f0c
https://exercism.io/tracks/clojure/exercises/grains/solutions/735d1e5a09d24a859398b940eec3ba92
https://exercism.io/tracks/crystal/exercises/grains/solutions/207a05af92634965a3b953cb7d9c7b58
https://exercism.io/tracks/d/exercises/grains/solutions/ad9dd77964ad44a3837c4bae737d9171
https://exercism.io/tracks/delphi/exercises/grains/solutions/fc3bc954affc48dbb5808e508daa918f
https://exercism.io/tracks/elixir/exercises/grains/solutions/74d693416b6d4f459a6700a274787576
https://exercism.io/tracks/fsharp/exercises/grains/solutions/c22afbc448904827b23bd2c64ff73e64
https://exercism.io/tracks/go/exercises/grains/solutions/a612827ec7aa4ca9afc1ae0207e9c85d
https://exercism.io/tracks/julia/exercises/grains/solutions/66d9fc663e57402781f50dc606c907bd
https://exercism.io/tracks/swift/exercises/grains/solutions/75c1f2cef484472cac3c3aa585bcd88c
https://exercism.io/tracks/r/exercises/grains/solutions/95658171bbbd4183a9358c8e8365b703
https://exercism.io/tracks/cfml/exercises/grains/solutions/b6adb5314bd74ffe8ed5da1faa6e6f0c
https://exercism.io/tracks/haskell/exercises/grains/solutions/cdd40e5c4d114133b839dd0715607612
https://exercism.io/tracks/lua/exercises/grains/solutions/0df2f51f82b04ae8a28879855065ba6d
https://exercism.io/tracks/java/exercises/grains/solutions/0667867097e9468bbb29e301107f365e
https://exercism.io/tracks/nim/exercises/grains/solutions/e9656cc5aeb046ec92612129d9285fe4
https://exercism.io/tracks/groovy/exercises/grains/solutions/cc9ad18dad1d4143aeaa1126a9b3ce96
