https://raw.githubusercontent.com/nayuki/Project-Euler-solutions/master/java/p125.java
https://raw.githubusercontent.com/nayuki/Project-Euler-solutions/master/python/p125.py
https://www.mathblog.dk/project-euler-125-square-sums-palindromic/
