https://github.com/TheAaronCovington/Java-Coderbyte-Solutions/raw/master/09TimeConvert.java
https://github.com/bolducp/coderbyte/raw/master/easy/09_time_convert.py
https://raw.githubusercontent.com/ZLester/Coderbyte-Solutions/master/Easy/09%20-%20Time%20Convert.js
https://raw.githubusercontent.com/Nigelmnz/CoderbyteSolutions/master/09-TimeConvert/9.hs
https://raw.githubusercontent.com/Samleo8/CoderByte/master/Easy/TimeConvert.c
https://raw.githubusercontent.com/Gamer1092/Coderbyte/Easy/Time%20Convert.cpp
https://raw.githubusercontent.com/juyongsim/coderbyte/master/TimeConvert.rb
