https://cc0ma.github.io/los-orc/
https://d0lk0ng.tistory.com/4
https://goodasd123.tistory.com/9
https://sengsung.tistory.com/116
https://itsaessak.tistory.com/197
https://ar9ang3.tistory.com/15
https://raw.githubusercontent.com/ch4n3-yoon/Lord-of-SQL-Injection/master/4_Orc.py
https://leeeeye321.tistory.com/172
https://croas.tistory.com/43
https://blog.silnex.kr/level-04lord-of-sql-injection-orc/
