https://infamoussyn.com/2014/02/05/overthewire-natas-level-0-16-writeup-updated/#level17
http://r4stl1n.github.io/2014/12/29/OverTheWire-Natas17-24.html#natas-17
https://raw.githubusercontent.com/lv22/otw-natas/master/L17/level17.txt
https://routley.io/tech/2017/06/17/natas.html
