http://hacktracking.blogspot.com.co/2013/08/redtigers-hackit-wargame-level-3.html
https://joizel.readthedocs.io/ko/latest/wargame/web/[redtiger]%20level3.html
http://ju.outofmemory.cn/entry/107022
https://wiki.zenk-security.com/doku.php?id=redtiger_level3
http://juniorprincewang.github.io/2018/04/04/RedTiger-s-Hackit-writeup/#level3
https://raw.githubusercontent.com/joizel/ctf_writeup/master/docs/wargame/web/%5Bredtiger%5D%20level3.rst
