https://raw.githubusercontent.com/fuwutu/CodeForces/master/244A%20-%20Dividing%20Orange.cpp
https://raw.githubusercontent.com/o-panda-o/MySolutions/master/Implementation/Code_244A_DividingOrange.java
https://raw.githubusercontent.com/changyuheng/codeforces-solutions/master/244a.py
