https://0xrick.github.io/hack-the-box/lacasadepapel/
https://medium.com/@hussaini.faisal/hackthebox-writeup-lacasadepapel-2820857cd196
https://hackso.me/lacasadepapel-htb-walkthrough/
https://snowscan.io/htb-writeup-lacasa/
https://www.youtube.com/watch?v=OSRCEOQQJ4E
https://www.youtube.com/watch?v=eHx74rlKlxA
https://www.youtube.com/watch?v=ZpvaFXMFhDw
https://www.arnotic.com/2019/07/25/hack-the-box-write-up-la-casa-de-papel/
