https://raw.githubusercontent.com/sile/euler.rs/master/euler_03/src/problem081.rs
https://raw.githubusercontent.com/nayuki/Project-Euler-solutions/master/java/p081.java
https://raw.githubusercontent.com/nayuki/Project-Euler-solutions/master/python/p081.py
https://www.mathblog.dk/project-euler-81-find-the-minimal-path-sum-from-the-top-left-to-the-bottom-right-by-moving-right-and-down/
