http://danyzatuchna.blogspot.com/2012/01/blackbox-chapter-1.html
https://github.com/historypeats/ctfs-wargames/tree/master/smashthestack/blackbox/level1
http://seanmurphree.com/blog/?p=22
https://www.youtube.com/watch?v=RF7DF4kfs1E
