https://raw.githubusercontent.com/DionysiosB/CodeForces/master/100-199/149B-MartianClock.cpp
https://raw.githubusercontent.com/adityagupta1089/Codeforces-Solutions/master/P149B.java
https://raw.githubusercontent.com/Erfaniaa/Codeforces/master/149B-MartianClock.pas
