https://raw.githubusercontent.com/vfonic/SPOJ/master/prime1.cpp
https://raw.githubusercontent.com/victorlcampos/spoj-elixir/master/PRIME1/source.exs
https://gist.githubusercontent.com/abhin4v/602453/raw/38e39c9009770f77732f36798ad36614d7803758/SPOJ-PRIME1.hs
https://raw.githubusercontent.com/lewin/SPOJ/master/prime1.java
https://raw.githubusercontent.com/sj26/spoj/master/PRIME1.py
https://gist.githubusercontent.com/abhin4v/403073/raw/b8ad65d62e65a88c0664c84d580a75bbc88b8781/SPOJ-PRIME1-UsingActors.scala
