https://raw.githubusercontent.com/blakeembrey/code-problems/master/solutions/c/bubble-sort.c
https://raw.githubusercontent.com/blakeembrey/code-problems/master/solutions/coffeescript/anagram-detection.coffee
https://raw.githubusercontent.com/blakeembrey/code-problems/master/solutions/cs/hotel-room.cs
https://raw.githubusercontent.com/blakeembrey/code-problems/master/solutions/elixir/factorial.ex
https://raw.githubusercontent.com/blakeembrey/code-problems/master/solutions/go/longest-words.go
https://raw.githubusercontent.com/blakeembrey/code-problems/master/solutions/cpp/once.hpp
https://raw.githubusercontent.com/blakeembrey/code-problems/master/solutions/javascript/anagram-detection.js
https://raw.githubusercontent.com/blakeembrey/code-problems/master/solutions/php/factorial.php
https://raw.githubusercontent.com/blakeembrey/code-problems/master/solutions/perl/anagram-detection.pl
https://raw.githubusercontent.com/YetAnotherMinion/YAMScratch/master/CodeAbbey/rust-sol/src/64.rs
