https://raw.githubusercontent.com/nikzsaz/Codeforces-solution/master/9A-dieRoll.cpp
https://codeforces.com/contest/9/submission/3827814
https://codeforces.com/contest/9/submission/11255380
https://codeforces.com/contest/9/submission/16759525
https://codeforces.com/contest/9/submission/6016224
https://codeforces.com/contest/9/submission/47377292
https://codeforces.com/contest/9/submission/52605466
https://codeforces.com/contest/9/submission/44367710
https://codeforces.com/contest/9/submission/5488643
https://codeforces.com/contest/9/submission/42243
https://codeforces.com/contest/9/submission/793058
