https://raw.githubusercontent.com/akalin/cryptopals-python3/master/challenge31.py
https://raw.githubusercontent.com/Daeinar/cryptopals/master/src/c31.rs
https://raw.githubusercontent.com/technion/matasano_challenge/master/set4/chal31/chal31.rb
