https://raw.githubusercontent.com/esbanarango/Competitive-Programming/master/HackerRank/Components%20in%20a%20graph.cpp
https://raw.githubusercontent.com/maiquynhtruong/algorithms-and-problems/master/components-in-a-graph.java
https://raw.githubusercontent.com/MaskRay/HackerRank/master/components-in-graph.py
