https://raw.githubusercontent.com/TRiahi/AP-Computer-Science/master/Module%204/4.05/BMI.java
https://raw.githubusercontent.com/vinitkantrod/codeabbey-Solutions-in-Python/master/11_body_mass_index.py
https://raw.githubusercontent.com/marclerodrigues/ruby_exercises/master/body_mass_index.rb
https://raw.githubusercontent.com/gravoo/codeabbey/master/%20Body%20Mass%20Index%20.cpp
https://raw.githubusercontent.com/Tempurturtul/CodeAbbey/master/C%23/BodyMassIndex.cs
https://raw.githubusercontent.com/chriswood/codeabbey/master/ca11.lisp
https://raw.githubusercontent.com/DylanLenz/codeAbbey_Solutions_JavaScript/master/bMICalculator_codeAbbey_28.js
https://raw.githubusercontent.com/RyanLafferty/CodeAbbey/master/p28.c
https://raw.githubusercontent.com/mpeshehonov/Codeabbey/master/practice/%2328/index.php
https://raw.githubusercontent.com/mmcdon20/code_abbey/master/src/main/scala/Abbey028.scala
https://raw.githubusercontent.com/javilag/codeAbbeyChalls/master/Challs/Go/028.go
https://raw.githubusercontent.com/JesseClarkND/codeabbey_in_C-NET/master/Body%20Mass%20Index
