https://raw.githubusercontent.com/ArnoldM904/CodeAbbey_Solutions/master/Python/id055-Matching_Words.py
https://raw.githubusercontent.com/gravoo/codeabbey/master/Matching%20Words%20.cpp
https://raw.githubusercontent.com/KlaudioVito/CodeAbbey/master/MatchingWords.java
https://raw.githubusercontent.com/AleksandrSD/CodeAbbeyProblems/master/Problem55/Program.cs
https://raw.githubusercontent.com/mmcdon20/code_abbey/master/src/main/scala/Abbey055.scala
https://raw.githubusercontent.com/martincruzot/er-generator/gh-pages/js/app.js
