https://exercism.io/solutions/b5383e261a134378b4bf2dd9a7448e65
https://exercism.io/solutions/730ff0a8891948d289bf2beda361dd8b
https://exercism.io/solutions/2ace608428ef4bf4b275a057f8835dda
https://exercism.io/solutions/dfebb12f501946f38f1adda28a0e6d2c
https://exercism.io/solutions/57d1909670c044fbbf91bd485d6ed10e
https://exercism.io/solutions/f20c090a3065486bbe2498b63f3ccc79
https://exercism.io/solutions/ba18bfce81d04ffa8a0187eb527e1ff7
https://exercism.io/solutions/db879ff3397042c18de7738efe757c4e
https://raw.githubusercontent.com/dotariel/exercism-go/master/go/acronym/acronym.go
https://raw.githubusercontent.com/exercism/haskell/master/exercises/acronym/examples/success-standard/src/Acronym.hs
https://raw.githubusercontent.com/exercism/javascript/master/exercises/acronym/example.js
https://raw.githubusercontent.com/exercism/php/master/exercises/acronym/example.php
https://raw.githubusercontent.com/exercism/rust/master/exercises/acronym/tests/acronym.rs
https://raw.githubusercontent.com/SLIB53/exercism-elixir-answers/master/acronym/acronym.exs
https://raw.githubusercontent.com/ThomasZumsteg/exercism-java/master/acronym/src/main/java/Acronym.java
https://raw.githubusercontent.com/ullet/exercism/master/ruby/acronym/acronym.rb
