https://raw.githubusercontent.com/IncludeZ/root-me/master/Web-Server/User-Agent
http://hackinblood.lasermark.co/user-agent-root-me/
https://bitbelle.wordpress.com/2018/01/10/root-me-web-server-challenge-solutions/
https://cn-uet.blogspot.com/2016/11/root-me-write-up-user-agent.html
https://securecorp.tistory.com/3
http://n3k0sec.top/2018/03/30/root-me-web-server/
http://www.jaccostraathof.nl/?p=265
https://sokhoinhhn.blogspot.com/2017/08/user-agent-backup-file.html
https://ddungkill.tistory.com/38
https://blog.silnex.kr/level-03root-me-user-agent/
https://github.com/yelynn1/Root-me/blob/master/Web_server.md#2
https://www.youtube.com/watch?v=thJYutoTlis
https://jeonyoungsin.tistory.com/177
https://tgraph.io/CTF-Kurs-molodogo-bojca-Nachalnye-zadaniya-kategorii-WEB-08-17
