https://raw.githubusercontent.com/mpillar/codeeval/master/1-moderate/gronsfeld-cipher/main.py
https://raw.githubusercontent.com/nikai3d/ce-challenges/master/moderate/gronsfeld.c
https://raw.githubusercontent.com/nikai3d/ce-challenges/master/moderate/gronsfeld.go
https://raw.githubusercontent.com/nikai3d/ce-challenges/master/moderate/gronsfeld.hs
https://raw.githubusercontent.com/nikai3d/ce-challenges/master/moderate/gronsfeld.lua
