https://raw.githubusercontent.com/DionysiosB/CodeAbbey/master/CloudAltitudeMeasurement.cpp
https://raw.githubusercontent.com/Ska89/just-for-fun-codeabbey.com/master/CloudAltitudeMeasurement.java
https://raw.githubusercontent.com/JesseClarkND/codeabbey_in_C-NET/master/Cloud%20Altitude%20Measurement
