https://raw.githubusercontent.com/c650/hackerrank-solutions/master/Algorithms/Implementation/apple-and-orange.cpp
https://raw.githubusercontent.com/RyanFehr/HackerRank/master/Algorithms/Implementation/Apple%20and%20Orange/Solution.cs
https://raw.githubusercontent.com/RyanFehr/HackerRank/master/Algorithms/Implementation/Apple%20and%20Orange/Solution.java
https://raw.githubusercontent.com/RyanFehr/HackerRank/master/Algorithms/Implementation/Apple%20and%20Orange/Solution.js
https://raw.githubusercontent.com/joshuatvernon/coding-challenges/master/Hackerrank/Algorithms/Implementation/02.%20Apple%20and%20Orange/apple-and-orange.py
